{
  "code": 1,
  "msg": "成功",
  "data":{
    "list": [
      {
        "id":1,
        "sn":"201504013232",
        "name":"测试商品",
        "fullName":"柳苑吸潮纸尖1[0.02/15#]",
        "isSectionPrice":true,
        "price":"19.00",
        "price1":"15.00",
        "quantity1":50
        "price2":"10.00",
        "quantity2":100,
        "cost":"30.00",
        "marketPrice":"50.00",
        "image":"/upload/image/201506/57c5a94d-f6fd-4389-9e11-1434be6cd712-medium.jpg",
        "unit":"盒",
        "isMarketable":true,
        "isList":true,
        "isTop":true,
        "stock":1000,
        "isYcInquiry":false
      },
      {
        "id":1,
        "sn":"201504013232",
        "name":"测试商品",
        "fullName":"柳苑吸潮纸尖1[0.02/15#]",
        "isSectionPrice":true,
        "price":"19.00",
        "price1":"15.00",
        "quantity1":50
        "price2":"10.00",
        "quantity2":100,
        "cost":"30.00",
        "marketPrice":"50.00",
        "image":"/upload/image/201506/57c5a94d-f6fd-4389-9e11-1434be6cd712-medium.jpg",
        "unit":"盒",
        "isMarketable":true,
        "isList":true,
        "isTop":true,
        "stock":1000,
        "isYcInquiry":false
      },
      {
        "id":1,
        "sn":"201504013232",
        "name":"测试商品",
        "fullName":"柳苑吸潮纸尖1[0.02/15#]",
        "isSectionPrice":true,
        "price":"19.00",
        "price1":"15.00",
        "quantity1":50
        "price2":"10.00",
        "quantity2":100,
        "cost":"30.00",
        "marketPrice":"50.00",
        "image":"/upload/image/201506/57c5a94d-f6fd-4389-9e11-1434be6cd712-medium.jpg",
        "unit":"盒",
        "isMarketable":true,
        "isList":true,
        "isTop":true,
        "stock":1000,
        "isYcInquiry":false
      },
      {
        "id":1,
        "sn":"201504013232",
        "name":"测试商品",
        "fullName":"柳苑吸潮纸尖1[0.02/15#]",
        "isSectionPrice":true,
        "price":"19.00",
        "price1":"15.00",
        "quantity1":50
        "price2":"10.00",
        "quantity2":100,
        "cost":"30.00",
        "marketPrice":"50.00",
        "image":"/upload/image/201506/57c5a94d-f6fd-4389-9e11-1434be6cd712-medium.jpg",
        "unit":"盒",
        "isMarketable":true,
        "isList":true,
        "isTop":true,
        "stock":1000,
        "isYcInquiry":false
      },
      {
        "id":1,
        "sn":"201504013232",
        "name":"测试商品",
        "fullName":"柳苑吸潮纸尖1[0.02/15#]",
        "isSectionPrice":true,
        "price":"19.00",
        "price1":"15.00",
        "quantity1":50
        "price2":"10.00",
        "quantity2":100,
        "cost":"30.00",
        "marketPrice":"50.00",
        "image":"/upload/image/201506/57c5a94d-f6fd-4389-9e11-1434be6cd712-medium.jpg",
        "unit":"盒",
        "isMarketable":true,
        "isList":true,
        "isTop":true,
        "stock":1000,
        "isYcInquiry":false
      },
      {
        "id":1,
        "sn":"201504013232",
        "name":"测试商品",
        "fullName":"柳苑吸潮纸尖1[0.02/15#]",
        "isSectionPrice":true,
        "price":"19.00",
        "price1":"15.00",
        "quantity1":50
        "price2":"10.00",
        "quantity2":100,
        "cost":"30.00",
        "marketPrice":"50.00",
        "image":"/upload/image/201506/57c5a94d-f6fd-4389-9e11-1434be6cd712-medium.jpg",
        "unit":"盒",
        "isMarketable":true,
        "isList":true,
        "isTop":true,
        "stock":1000,
        "isYcInquiry":false
      },
      {
        "id":1,
        "sn":"201504013232",
        "name":"测试商品",
        "fullName":"柳苑吸潮纸尖1[0.02/15#]",
        "isSectionPrice":true,
        "price":"19.00",
        "price1":"15.00",
        "quantity1":50
        "price2":"10.00",
        "quantity2":100,
        "cost":"30.00",
        "marketPrice":"50.00",
        "image":"/upload/image/201506/57c5a94d-f6fd-4389-9e11-1434be6cd712-medium.jpg",
        "unit":"盒",
        "isMarketable":true,
        "isList":true,
        "isTop":true,
        "stock":1000,
        "isYcInquiry":false
      },
      {
        "id":1,
        "sn":"201504013232",
        "name":"测试商品",
        "fullName":"柳苑吸潮纸尖1[0.02/15#]",
        "isSectionPrice":true,
        "price":"19.00",
        "price1":"15.00",
        "quantity1":50
        "price2":"10.00",
        "quantity2":100,
        "cost":"30.00",
        "marketPrice":"50.00",
        "image":"/upload/image/201506/57c5a94d-f6fd-4389-9e11-1434be6cd712-medium.jpg",
        "unit":"盒",
        "isMarketable":true,
        "isList":true,
        "isTop":true,
        "stock":1000,
        "isYcInquiry":false
      },
      {
        "id":1,
        "sn":"201504013232",
        "name":"测试商品",
        "fullName":"柳苑吸潮纸尖1[0.02/15#]",
        "isSectionPrice":true,
        "price":"19.00",
        "price1":"15.00",
        "quantity1":50
        "price2":"10.00",
        "quantity2":100,
        "cost":"30.00",
        "marketPrice":"50.00",
        "image":"/upload/image/201506/57c5a94d-f6fd-4389-9e11-1434be6cd712-medium.jpg",
        "unit":"盒",
        "isMarketable":true,
        "isList":true,
        "isTop":true,
        "stock":1000,
        "isYcInquiry":false
      },
      {
        "id":1,
        "sn":"201504013232",
        "name":"测试商品",
        "fullName":"柳苑吸潮纸尖1[0.02/15#]",
        "isSectionPrice":true,
        "price":"19.00",
        "price1":"15.00",
        "quantity1":50
        "price2":"10.00",
        "quantity2":100,
        "cost":"30.00",
        "marketPrice":"50.00",
        "image":"/upload/image/201506/57c5a94d-f6fd-4389-9e11-1434be6cd712-medium.jpg",
        "unit":"盒",
        "isMarketable":true,
        "isList":true,
        "isTop":true,
        "stock":1000,
        "isYcInquiry":false
      },
      {
        "id":1,
        "sn":"201504013232",
        "name":"测试商品",
        "fullName":"柳苑吸潮纸尖1[0.02/15#]",
        "isSectionPrice":true,
        "price":"19.00",
        "price1":"15.00",
        "quantity1":50
        "price2":"10.00",
        "quantity2":100,
        "cost":"30.00",
        "marketPrice":"50.00",
        "image":"/upload/image/201506/57c5a94d-f6fd-4389-9e11-1434be6cd712-medium.jpg",
        "unit":"盒",
        "isMarketable":true,
        "isList":true,
        "isTop":true,
        "stock":1000,
        "isYcInquiry":false
      },
      {
        "id":1,
        "sn":"201504013232",
        "name":"测试商品",
        "fullName":"柳苑吸潮纸尖1[0.02/15#]",
        "isSectionPrice":true,
        "price":"19.00",
        "price1":"15.00",
        "quantity1":50
        "price2":"10.00",
        "quantity2":100,
        "cost":"30.00",
        "marketPrice":"50.00",
        "image":"/upload/image/201506/57c5a94d-f6fd-4389-9e11-1434be6cd712-medium.jpg",
        "unit":"盒",
        "isMarketable":true,
        "isList":true,
        "isTop":true,
        "stock":1000,
        "isYcInquiry":false
      }
    ],
    "page": {
      "pageNumber": 3,
      "pageSize": 7,
      "totalCount": 16,
      "offset": 14,
      "lastPage": true,
      "prePage": 2,
      "firstPage": false,
      "hasPrePage": true,
      "hasNextPage": false,
      "slider": [
        1,
        2,
        3
      ],
      "startRow": 15,
      "endRow": 16,
      "totalPages": 3,
      "nextPage": 3
    }
  }
}
